<svg width="19" height="19" viewBox="0 0 19 19" fill="none" xmlns="http://www.w3.org/2000/svg">
<path fill-rule="evenodd" clip-rule="evenodd" d="M5.25171 13.0071H6.8776V16.7695L9.31644 15.9856L11.7553 16.7695V13.0071H13.3812V19L9.31644 17.6935L5.25171 19V13.0071Z" fill="#329945"/>
<path fill-rule="evenodd" clip-rule="evenodd" d="M9.31652 13.0071C12.4594 13.0071 15.0071 10.4594 15.0071 7.31652C15.0071 4.17367 12.4594 1.62589 9.31652 1.62589C6.17367 1.62589 3.62589 4.17367 3.62589 7.31652C3.62589 10.4594 6.17367 13.0071 9.31652 13.0071ZM9.31652 14.633C13.3573 14.633 16.633 11.3573 16.633 7.31652C16.633 3.27572 13.3573 0 9.31652 0C5.27572 0 2 3.27572 2 7.31652C2 11.3573 5.27572 14.633 9.31652 14.633Z" fill="#329945"/>
<path fill-rule="evenodd" clip-rule="evenodd" d="M9.31647 3.00562L10.5645 4.87765H13.0707L11.8513 7.31649L13.0707 9.75533H10.5645L9.31647 11.6274L8.06845 9.75533H5.56226L6.78168 7.31649L5.56226 4.87765H8.06845L9.31647 3.00562ZM9.31647 5.93674L8.9386 6.50354H8.19301L8.59948 7.31649L8.19301 8.12944H8.9386L9.31647 8.69624L9.69434 8.12944H10.4399L10.0335 7.31649L10.4399 6.50354H9.69434L9.31647 5.93674Z" fill="#329945"/>
</svg>
