<svg width="141" height="38" viewBox="0 0 141 38" fill="none" xmlns="http://www.w3.org/2000/svg">
<path fill-rule="evenodd" clip-rule="evenodd" d="M18.4568 20.7429L2.39569 12.0429C1.96821 11.8013 1.54073 11.7409 1.17432 11.8617L14.3652 24.8513L18.4568 20.7429Z" fill="url(#paint0_linear)"/>
<path fill-rule="evenodd" clip-rule="evenodd" d="M18.5189 28.9612L24.0151 26.0008C25.1143 25.3966 25.1143 24.4299 24.0151 23.8258L18.5189 20.8049L14.3662 24.8528L18.5189 28.9612Z" fill="url(#paint1_linear)"/>
<path fill-rule="evenodd" clip-rule="evenodd" d="M1.17573 11.8018C0.687179 11.983 0.381836 12.4663 0.381836 13.1913V36.5122C0.381836 37.2372 0.687179 37.7205 1.17573 37.9018L14.3666 24.8518L1.17573 11.8018Z" fill="url(#paint2_linear)"/>
<path fill-rule="evenodd" clip-rule="evenodd" d="M1.17432 37.9018C1.54073 38.0226 1.96821 37.9622 2.39569 37.7206L18.4568 28.9601L14.3652 24.8518L1.17432 37.9018Z" fill="url(#paint3_linear)"/>
<path fill-rule="evenodd" clip-rule="evenodd" d="M133.341 35.1229L140.228 19.4146H137.985L134.799 27.2464H134.754L131.479 19.4146H129.235L133.767 29.6272L131.21 35.1229H133.341Z" fill="white"/>
<path fill-rule="evenodd" clip-rule="evenodd" d="M123.738 19.4146C120.982 19.4146 119.659 21.0421 119.279 22.0314L121.161 22.8229C121.542 21.8112 122.64 21.2618 123.783 21.2618C125.329 21.2618 126.652 22.2511 126.652 23.8787V24.1866C126.226 23.9446 125.15 23.5266 123.671 23.5266C121.093 23.5266 118.853 24.8462 118.853 27.287C118.853 29.5305 120.712 30.8937 122.954 30.8937C124.836 30.8937 125.957 29.948 126.562 29.0465H126.652V30.5416H128.624V24.0324C128.624 20.998 126.427 19.4146 123.738 19.4146ZM123.289 29.0449C122.214 29.0449 121.004 28.4731 121.004 27.3295C121.004 26.3397 121.855 25.1967 124.029 25.1967C125.777 25.1967 126.651 25.8998 126.651 25.8998C126.651 27.6593 124.925 29.0449 123.289 29.0449Z" fill="white"/>
<path fill-rule="evenodd" clip-rule="evenodd" d="M115.8 15.187H117.632V30.8953H115.8V15.187Z" fill="white"/>
<path fill-rule="evenodd" clip-rule="evenodd" d="M109 15.187H103.587V30.8953H105.628V24.5331H109C111.639 24.5331 113.969 22.6026 113.969 19.8603C113.969 17.118 111.639 15.187 109 15.187ZM109.043 22.6016H105.627V17.1169H109.043C110.861 17.1169 111.882 18.6086 111.882 19.8593C111.882 21.1094 110.861 22.6016 109.043 22.6016Z" fill="white"/>
<path fill-rule="evenodd" clip-rule="evenodd" d="M89.2259 25.5436C89.1642 23.5027 90.8487 22.4628 92.061 22.4628C93.0062 22.4628 93.8071 22.923 94.0742 23.5828L89.2259 25.5436ZM92.2469 30.9865C94.7327 30.9865 96.1705 29.5058 96.7664 28.646L94.9176 27.4454C94.3012 28.3258 93.4587 28.9061 92.2469 28.9061C91.0345 28.9061 90.1715 28.3658 89.6172 27.3054L96.8692 24.3846L96.6226 23.7843C96.1705 22.6043 94.7943 20.4233 91.9797 20.4233C89.1857 20.4233 86.8643 22.5643 86.8643 25.7052C86.8643 28.666 89.1651 30.9865 92.2469 30.9865Z" fill="white"/>
<path fill-rule="evenodd" clip-rule="evenodd" d="M83.3311 30.665H85.7141V15.1406H83.3311V30.665Z" fill="white"/>
<path fill-rule="evenodd" clip-rule="evenodd" d="M81.6864 30.2262C81.6864 34.1274 79.3238 35.7276 76.5298 35.7276C73.9001 35.7276 72.3179 34.0073 71.722 32.6067L73.7974 31.7668C74.1673 32.6267 75.0709 33.6472 76.5298 33.6472C78.317 33.6472 79.4266 32.5667 79.4266 30.5463V29.786H79.3444C78.8101 30.4263 77.7827 30.9865 76.4887 30.9865C73.7768 30.9865 71.291 28.686 71.291 25.7252C71.291 22.7444 73.7768 20.4233 76.4887 20.4233C77.7827 20.4233 78.8101 20.9836 79.3444 21.6039H79.4266V20.7435H81.6864V30.2262ZM73.675 25.7251C73.675 27.5654 75.0513 28.906 76.6951 28.906C78.3179 28.906 79.5919 27.5654 79.5919 25.7251C79.5919 23.8643 78.3179 22.5042 76.6951 22.5042C75.0513 22.5042 73.675 23.8643 73.675 25.7251Z" fill="white"/>
<path fill-rule="evenodd" clip-rule="evenodd" d="M70.3045 25.7052C70.3045 28.746 67.8598 30.9865 64.8603 30.9865C61.8607 30.9865 59.416 28.746 59.416 25.7052C59.416 22.6443 61.8607 20.4233 64.8603 20.4233C67.8598 20.4233 70.3045 22.6443 70.3045 25.7052ZM61.8 25.7051C61.8 27.5854 63.2174 28.906 64.8612 28.906C66.5046 28.906 67.9224 27.5854 67.9224 25.7051C67.9224 23.8042 66.5046 22.5042 64.8612 22.5042C63.2174 22.5042 61.8 23.8042 61.8 25.7051Z" fill="white"/>
<path fill-rule="evenodd" clip-rule="evenodd" d="M58.43 25.7052C58.43 28.746 55.9853 30.9865 52.9858 30.9865C49.9863 30.9865 47.541 28.746 47.541 25.7052C47.541 22.6443 49.9863 20.4233 52.9858 20.4233C55.9853 20.4233 58.43 22.6443 58.43 25.7052ZM49.925 25.7051C49.925 27.5854 51.3424 28.906 52.9862 28.906C54.6296 28.906 56.0474 27.5854 56.0474 25.7051C56.0474 23.8042 54.6296 22.5042 52.9862 22.5042C51.3424 22.5042 49.925 23.8042 49.925 25.7051Z" fill="white"/>
<path fill-rule="evenodd" clip-rule="evenodd" d="M38.8507 30.9868C41.3576 30.9868 43.2475 30.1864 44.7265 28.6863C46.247 27.2056 46.7196 25.1252 46.7196 23.4444C46.7196 22.9247 46.6786 22.4445 46.5964 22.0443H38.8507V24.2848H44.3566C44.1922 25.5454 43.7612 26.4653 43.1037 27.1056C42.3023 27.8859 41.0489 28.7463 38.8507 28.7463C35.4608 28.7463 32.8106 26.0856 32.8106 22.7847C32.8106 19.4837 35.4608 16.823 38.8507 16.823C40.6795 16.823 42.0146 17.5228 43.0009 18.4232L44.6237 16.843C43.2475 15.5625 41.4187 14.582 38.8507 14.582C34.2078 14.582 30.3042 18.2632 30.3042 22.7847C30.3042 27.3056 34.2078 30.9868 38.8507 30.9868Z" fill="white"/>
<path fill-rule="evenodd" clip-rule="evenodd" d="M36.3974 6.31958C36.3242 6.41398 36.2224 6.51861 36.092 6.63346C35.9616 6.74832 35.7938 6.85531 35.5887 6.95443C35.3835 7.05355 35.137 7.13694 34.8492 7.20459C34.5613 7.27224 34.2234 7.30607 33.8353 7.30607C33.3996 7.30607 32.9996 7.23212 32.6354 7.08423C32.2713 6.93633 31.9588 6.72236 31.6979 6.4423C31.4371 6.16224 31.2344 5.81768 31.0896 5.40861C30.9449 4.99954 30.8726 4.53226 30.8726 4.00675V3.55363C30.8726 3.03127 30.9378 2.56478 31.0682 2.15413C31.1986 1.74349 31.3862 1.39657 31.6311 1.11336C31.8761 0.830158 32.175 0.614611 32.5281 0.466715C32.8811 0.31882 33.2819 0.244873 33.7304 0.244873C34.1534 0.244873 34.5224 0.299153 34.8373 0.407715C35.1521 0.516277 35.4177 0.668103 35.634 0.8632C35.8503 1.0583 36.0205 1.29036 36.1445 1.55941C36.2686 1.82845 36.3512 2.12345 36.3926 2.44442H35.2094C35.1808 2.26505 35.1331 2.09985 35.0663 1.94881C34.9995 1.79777 34.908 1.66718 34.7919 1.55705C34.6758 1.44691 34.5327 1.36038 34.3625 1.29744C34.1924 1.23451 33.9896 1.20304 33.7542 1.20304C33.4712 1.20304 33.2255 1.25496 33.0171 1.35881C32.8088 1.46265 32.6354 1.61447 32.4971 1.81429C32.3587 2.01411 32.2554 2.25955 32.187 2.55062C32.1186 2.84169 32.0844 3.17288 32.0844 3.54419V4.00675C32.0844 4.38436 32.1257 4.71869 32.2084 5.00977C32.2911 5.30084 32.4096 5.54549 32.5639 5.74373C32.7181 5.94198 32.9058 6.09302 33.1269 6.19686C33.3479 6.3007 33.5984 6.35262 33.8783 6.35262C34.085 6.35262 34.2623 6.33925 34.4102 6.3125C34.5582 6.28575 34.683 6.25193 34.7848 6.21102C34.8866 6.17011 34.97 6.12527 35.0352 6.0765C35.1005 6.02772 35.1537 5.98131 35.1951 5.93726V4.59204H33.7638V3.68579H36.3974V6.31958ZM41.7843 4.14445H38.9312V6.25903H42.2662V7.21248H37.7242V0.340088H42.2328V1.30298H38.9312V3.20044H41.7843V4.14445ZM48.2682 1.30298H46.1022V7.21248H44.9047V1.30298H42.7578V0.340088H48.2682V1.30298ZM52.8856 7.21248H51.6833V0.340088H52.8856V7.21248ZM59.3891 1.30298H57.2231V7.21248H56.0255V1.30298H53.8786V0.340088H59.3891V1.30298ZM68.2784 3.95435C68.2784 4.4767 68.2092 4.94477 68.0708 5.35856C67.9325 5.77235 67.7377 6.12321 67.4864 6.41113C67.2351 6.69906 66.933 6.92011 66.5799 7.0743C66.2268 7.22849 65.8356 7.30558 65.4062 7.30558C64.98 7.30558 64.5904 7.22849 64.2373 7.0743C63.8843 6.92011 63.5797 6.69906 63.3237 6.41113C63.0677 6.12321 62.8689 5.77235 62.7273 5.35856C62.5858 4.94477 62.515 4.4767 62.515 3.95435V3.60506C62.515 3.08271 62.5858 2.61385 62.7273 2.19849C62.8689 1.78312 63.0661 1.43069 63.3189 1.14119C63.5718 0.851697 63.8747 0.629856 64.2278 0.475667C64.5809 0.321478 64.9705 0.244385 65.3967 0.244385C65.8261 0.244385 66.2181 0.321478 66.5727 0.475667C66.9274 0.629856 67.2311 0.851697 67.484 1.14119C67.7369 1.43069 67.9325 1.78312 68.0708 2.19849C68.2092 2.61385 68.2784 3.08271 68.2784 3.60506V3.95435ZM67.0703 3.59538C67.0703 3.21148 67.0329 2.87242 66.9582 2.57821C66.8834 2.28399 66.7745 2.03776 66.6314 1.83952C66.4882 1.64128 66.3125 1.49102 66.1042 1.38875C65.8958 1.28648 65.6597 1.23535 65.3957 1.23535C65.1381 1.23535 64.9059 1.28648 64.6991 1.38875C64.4924 1.49102 64.3167 1.64128 64.1719 1.83952C64.0272 2.03776 63.9159 2.28399 63.838 2.57821C63.76 2.87242 63.7211 3.21148 63.7211 3.59538V3.9541C63.7211 4.338 63.76 4.67784 63.838 4.97363C63.9159 5.26942 64.028 5.51722 64.1743 5.71704C64.3206 5.91686 64.4979 6.0679 64.7063 6.17017C64.9146 6.27243 65.1476 6.32357 65.4052 6.32357C65.9396 6.32357 66.3507 6.12218 66.6385 5.7194C66.9264 5.31662 67.0703 4.72819 67.0703 3.9541V3.59538ZM74.9909 7.21248H73.7838L70.6875 2.33667V7.21248H69.4804V0.340088H70.6875L73.7934 5.23478V0.340088H74.9909V7.21248Z" fill="white"/>
<defs>
<linearGradient id="paint0_linear" x1="24.657" y1="22.0518" x2="22.0017" y2="2.03174" gradientUnits="userSpaceOnUse">
<stop stop-color="#D6FFA1"/>
<stop offset="0.3264" stop-color="#93E2A7"/>
<stop offset="1" stop-color="#00A3B5"/>
</linearGradient>
<linearGradient id="paint1_linear" x1="-1.76673" y1="14.8047" x2="5.89729" y2="36.1564" gradientUnits="userSpaceOnUse">
<stop stop-color="#FF177B"/>
<stop offset="0.6721" stop-color="#FFA976"/>
<stop offset="1" stop-color="#FFEC73"/>
</linearGradient>
<linearGradient id="paint2_linear" x1="14.7608" y1="24.6532" x2="-1.98526" y2="6.30122" gradientUnits="userSpaceOnUse">
<stop stop-color="#63FFD4"/>
<stop offset="0.4854" stop-color="#32A0BA"/>
<stop offset="0.8349" stop-color="#1262A9"/>
<stop offset="1" stop-color="#064AA2"/>
</linearGradient>
<linearGradient id="paint3_linear" x1="19.6266" y1="20.1615" x2="-4.4719" y2="25.8366" gradientUnits="userSpaceOnUse">
<stop stop-color="#FF4521"/>
<stop offset="0.3411" stop-color="#D43E65"/>
<stop offset="0.7935" stop-color="#9F36B9"/>
<stop offset="1" stop-color="#8A33DB"/>
</linearGradient>
</defs>
</svg>
